<?xml version="1.0" encoding="UTF-8"?>
<svg width="24px" height="24px" viewBox="0 0 24 24" version="1.1" xmlns="http://www.w3.org/2000/svg" xmlns:xlink="http://www.w3.org/1999/xlink">
    <!-- Generator: Sketch 48.1 (47250) - http://www.bohemiancoding.com/sketch -->
    <title>icon/20px/backlog</title>
    <desc>Created with Sketch.</desc>
    <defs>
        <path d="M2.98741441,9 L2.98741441,5 C2.98741441,3.8954305 3.88284491,3 4.98741441,3 L17.0125856,3 C18.1171551,3 19.0125856,3.8954305 19.0125856,5 L19.0125856,7 C20.1171551,7 21.0125856,7.8954305 21.0125856,9 L21.0125856,11 C21.0125856,12.1045695 20.1171551,13 19.0125856,13 L19.0125856,19 C19.0125856,20.1045695 18.1171551,21 17.0125856,21 L4.98741441,21 C3.88284491,21 2.98741441,20.1045695 2.98741441,19 L2.98741441,11 L5.01258559,11 L5.01258559,9 L2.98741441,9 Z M7.01034017,9 L7.01034017,11 L19.0125856,11 L19.0125856,9 L7.01034017,9 Z M5.01258559,5 L5.01258559,7 L17.014831,7 L17.014831,5 L5.01258559,5 Z M5.01258559,13 L5.01258559,15 L17.014831,15 L17.014831,13 L5.01258559,13 Z M5.01258559,17 L5.01258559,19 L17.014831,19 L17.014831,17 L5.01258559,17 Z" id="path-1"></path>
    </defs>
    <g id="Symbols" stroke="none" stroke-width="1" fill="none" fill-rule="evenodd">
        <g id="icon/20px/backlog">
            <mask id="mask-2" fill="white">
                <use xlink:href="#path-1"></use>
            </mask>
            <use id="Combined-Shape" fill="#42526E" xlink:href="#path-1"></use>
        </g>
    </g>
</svg>