<?xml version="1.0" encoding="UTF-8"?>
<svg width="24px" height="24px" viewBox="0 0 24 24" version="1.1" xmlns="http://www.w3.org/2000/svg" xmlns:xlink="http://www.w3.org/1999/xlink">
    <!-- Generator: Sketch 48.1 (47250) - http://www.bohemiancoding.com/sketch -->
    <title>icon/20px/lightbulb-filled</title>
    <desc>Created with Sketch.</desc>
    <defs>
        <path d="M12,3.9985 C8.687,3.9985 6.002,6.6835 6.002,9.9965 C6.002,12.2145 8.29,14.4805 8.29,14.4805 C8.68,14.8675 9,15.5925 9,16.0915 C9,16.5905 9.45,16.9985 10,16.9985 L14,16.9985 C14.55,16.9985 15,16.5905 15,16.0915 C15,15.5925 15.32,14.8675 15.71,14.4805 C15.71,14.4805 17.998,12.2145 17.998,9.9965 C17.998,6.6835 15.313,3.9985 12,3.9985 L12,3.9985 Z M14.9649,18.9985 C14.9649,18.4485 14.5149,17.9985 13.9649,17.9985 L9.9649,17.9985 C9.4149,17.9985 8.9649,18.4485 8.9649,18.9985 L8.9649,19.0015 C8.9649,19.5515 9.4149,20.0015 9.9649,20.0015 L13.9649,20.0015 C14.5149,20.0015 14.9649,19.5515 14.9649,19.0015 L14.9649,18.9985 Z" id="path-1"></path>
    </defs>
    <g id="Symbols" stroke="none" stroke-width="1" fill="none" fill-rule="evenodd">
        <g id="icon/20px/lightbulb-filled">
            <mask id="mask-2" fill="white">
                <use xlink:href="#path-1"></use>
            </mask>
            <use id="Shape" fill="#42526E" xlink:href="#path-1"></use>
        </g>
    </g>
</svg>