<?xml version="1.0" encoding="UTF-8"?>
<svg width="24px" height="24px" viewBox="0 0 24 24" version="1.1" xmlns="http://www.w3.org/2000/svg" xmlns:xlink="http://www.w3.org/1999/xlink">
    <!-- Generator: Sketch 48.1 (47250) - http://www.bohemiancoding.com/sketch -->
    <title>icon/20px/table</title>
    <desc>Created with Sketch.</desc>
    <defs>
        <path d="M4,4 L20,4 C21.1045695,4 22,4.8954305 22,6 L22,18 C22,19.1045695 21.1045695,20 20,20 L4,20 C2.8954305,20 2,19.1045695 2,18 L2,6 C2,4.8954305 2.8954305,4 4,4 Z M4,7.9979248 L4,11.9979248 L8,11.9979248 L8,7.9979248 L4,7.9979248 Z M4,14.1362179 L4,18.1362179 L8,18.1362179 L8,14.1362179 L4,14.1362179 Z M10,7.9979248 L10,11.9979248 L14,11.9979248 L14,7.9979248 L10,7.9979248 Z M10,14.1362179 L10,18.1362179 L14,18.1362179 L14,14.1362179 L10,14.1362179 Z M16,7.9979248 L16,11.9979248 L20,11.9979248 L20,7.9979248 L16,7.9979248 Z M16,14.1362179 L16,18.1362179 L20,18.1362179 L20,14.1362179 L16,14.1362179 Z" id="path-1"></path>
    </defs>
    <g id="Symbols" stroke="none" stroke-width="1" fill="none" fill-rule="evenodd">
        <g id="icon/20px/table">
            <mask id="mask-2" fill="white">
                <use xlink:href="#path-1"></use>
            </mask>
            <use id="Combined-Shape" fill="#172B4D" xlink:href="#path-1"></use>
        </g>
    </g>
</svg>