<?xml version="1.0" encoding="UTF-8"?>
<svg width="16px" height="16px" viewBox="0 0 16 16" version="1.1" xmlns="http://www.w3.org/2000/svg" xmlns:xlink="http://www.w3.org/1999/xlink">
    <!-- Generator: Sketch 48.2 (47327) - http://www.bohemiancoding.com/sketch -->
    <title>icon/16px/arrow-up-small-16px</title>
    <desc>Created with Sketch.</desc>
    <defs>
        <path d="M7.220875,5.822 L4.291875,8.777 C3.902875,9.169 3.902875,9.804 4.291875,10.196 C4.679875,10.588 5.309875,10.588 5.696875,10.196 L7.994875,7.879 L10.301875,10.206 C10.690875,10.598 11.320875,10.598 11.708875,10.206 C12.096875,9.814 12.096875,9.179 11.708875,8.787 L8.768875,5.822 C8.550875,5.607 8.269875,5.5 7.990875,5.5 C7.711875,5.5 7.433875,5.607 7.220875,5.822 Z" id="path-1"></path>
    </defs>
    <g id="Symbols" stroke="none" stroke-width="1" fill="none" fill-rule="evenodd">
        <g id="icon/16px/arrow-up-small">
            <mask id="mask-2" fill="white">
                <use xlink:href="#path-1"></use>
            </mask>
            <use id="chevron-up" fill="#3F4F71" xlink:href="#path-1"></use>
        </g>
    </g>
</svg>