<?xml version="1.0" encoding="UTF-8"?>
<svg width="16px" height="16px" viewBox="0 0 16 16" version="1.1" xmlns="http://www.w3.org/2000/svg" xmlns:xlink="http://www.w3.org/1999/xlink">
    <!-- Generator: Sketch 48.2 (47327) - http://www.bohemiancoding.com/sketch -->
    <title>icon/16px/component-16px</title>
    <desc>Created with Sketch.</desc>
    <defs>
        <path d="M13,4 C14.1,4 15,4.9 15,6 L15,12 C15,13.1 14.1,14 13,14 L3,14 C1.9,14 1,13.1 1,12 L1,6 C1,4.9 1.9,4 3,4 C3,2.9 3.9,2 5,2 C6.1,2 7,2.9 7,4 L9,4 C9,2.9 9.9,2 11,2 C12.1,2 13,2.9 13,4 Z M3,12 L13,12 L13,6 L3,6 L3,12 Z" id="path-1"></path>
    </defs>
    <g id="Symbols" stroke="none" stroke-width="1" fill="none" fill-rule="evenodd">
        <g id="icon/16px/component">
            <mask id="mask-2" fill="white">
                <use xlink:href="#path-1"></use>
            </mask>
            <use id="component" fill="#42526E" xlink:href="#path-1"></use>
        </g>
    </g>
</svg>
