<?xml version="1.0" encoding="UTF-8"?>
<svg width="16px" height="16px" viewBox="0 0 16 16" version="1.1" xmlns="http://www.w3.org/2000/svg" xmlns:xlink="http://www.w3.org/1999/xlink">
    <!-- Generator: Sketch 48.2 (47327) - http://www.bohemiancoding.com/sketch -->
    <title>confluence/16px/insert-column-before</title>
    <desc>Created with Sketch.</desc>
    <defs></defs>
    <g id="Editor-icons---v2" stroke="none" stroke-width="1" fill="none" fill-rule="evenodd">
        <g id="confluence/16px/insert-column-before" fill="#42526E">
            <path d="M14,2 C14.5522847,2 15,2.44771525 15,3 L15,14 C15,14.5522847 14.5522847,15 14,15 L6,15 C5.44771525,15 5,14.5522847 5,14 L5,7 L7,7 L7,13 L9,13 L9,2 L14,2 Z M11,4 L11,13 L13,13 L13,4 L11,4 Z" id="Combined-Shape" fill-rule="nonzero"></path>
            <path d="M4,2 L4,0.5 C4,0.223857625 4.22385763,0 4.5,0 L5.5,0 C5.77614237,0 6,0.223857625 6,0.5 L6,2 L7.5,2 C7.77614237,2 8,2.22385763 8,2.5 L8,3.5 C8,3.77614237 7.77614237,4 7.5,4 L6,4 L6,5.5 C6,5.77614237 5.77614237,6 5.5,6 L4.5,6 C4.22385763,6 4,5.77614237 4,5.5 L4,4 L2.5,4 C2.22385763,4 2,3.77614237 2,3.5 L2,2.5 C2,2.22385763 2.22385763,2 2.5,2 L4,2 Z" id="Combined-Shape"></path>
        </g>
    </g>
</svg>