<?xml version="1.0" encoding="UTF-8"?>
<svg width="16px" height="16px" viewBox="0 0 16 16" version="1.1" xmlns="http://www.w3.org/2000/svg" xmlns:xlink="http://www.w3.org/1999/xlink">
    <!-- Generator: Sketch 48.2 (47327) - http://www.bohemiancoding.com/sketch -->
    <title>icon/16px/tag-16px</title>
    <desc>Created with Sketch.</desc>
    <defs>
        <path d="M5.17306304,5.17297886 C4.78206304,5.56397886 4.14906304,5.56397886 3.75806304,5.17297886 C3.36806304,4.78197886 3.36806304,4.14897886 3.75806304,3.75897886 C4.14906304,3.36797886 4.78206304,3.36797886 5.17306304,3.75897886 C5.56306304,4.14997886 5.56306304,4.78197886 5.17306304,5.17297886 M7.16106304,2.12497886 L3.97906304,1.77097886 C2.70506304,1.62997886 1.62906304,2.70597886 1.77106304,3.97997886 L2.12406304,7.16197886 C2.17406304,7.61297886 2.37706304,8.03397886 2.69806304,8.35497886 L8.00106304,13.6579789 C8.77906304,14.4359789 10.052063,14.4359789 10.830063,13.6579789 L13.658063,10.8299789 C14.436063,10.0519789 14.436063,8.77897886 13.658063,8.00197886 L8.35506304,2.69797886 C8.03306304,2.37697886 7.61206304,2.17397886 7.16106304,2.12497886" id="path-1"></path>
    </defs>
    <g id="Symbols" stroke="none" stroke-width="1" fill="none" fill-rule="evenodd">
        <g id="icon/16px/tag">
            <mask id="mask-2" fill="white">
                <use xlink:href="#path-1"></use>
            </mask>
            <use id="tag-small" fill="#42526E" xlink:href="#path-1"></use>
        </g>
    </g>
</svg>