<?xml version="1.0" encoding="UTF-8"?>
<svg width="16px" height="16px" viewBox="0 0 16 16" version="1.1" xmlns="http://www.w3.org/2000/svg" xmlns:xlink="http://www.w3.org/1999/xlink">
    <!-- Generator: Sketch 48.2 (47327) - http://www.bohemiancoding.com/sketch -->
    <title>icon/16px/tray-16px</title>
    <desc>Created with Sketch.</desc>
    <defs>
        <path d="M5,10 L11,10 L11,8 L5,8 L5,10 Z M5,7 L11,7 L11,5 L5,5 L5,7 Z M13,12 L9.723,12 C9.376,12.596 8.738,13 8,13 C7.262,13 6.624,12.596 6.277,12 L3,12 L3,3 L13,3 L13,12 Z M13,1 L3,1 C1.9,1 1,1.9 1,3 L1,13 C1,14.1 1.9,15 3,15 L13,15 C14.1,15 15,14.1 15,13 L15,3 C15,1.9 14.1,1 13,1 Z" id="path-1"></path>
    </defs>
    <g id="Symbols" stroke="none" stroke-width="1" fill="none" fill-rule="evenodd">
        <g id="icon/16px/tray">
            <mask id="mask-2" fill="white">
                <use xlink:href="#path-1"></use>
            </mask>
            <use id="tray" fill="#42526E" xlink:href="#path-1"></use>
        </g>
    </g>
</svg>