<?xml version="1.0" encoding="UTF-8"?>
<svg width="16px" height="16px" viewBox="0 0 16 16" version="1.1" xmlns="http://www.w3.org/2000/svg" xmlns:xlink="http://www.w3.org/1999/xlink">
    <!-- Generator: Sketch 48.2 (47327) - http://www.bohemiancoding.com/sketch -->
    <title>icon/16px/vid-audio-muted-16px</title>
    <desc>Created with Sketch.</desc>
    <defs>
        <path d="M7.87181441,10.299128 L10.3026321,7.86831026 L10.3026321,8.00230263 C10.3026321,9.27258802 9.26951784,10.3026321 8,10.3026321 C7.9569856,10.3026321 7.91424689,10.3014539 7.87181441,10.299128 Z M5.70076348,8.12829414 C5.69850945,8.08658243 5.69736788,8.04457556 5.69736788,8.00230263 L5.69736788,3.39243314 C5.69736788,2.12214775 6.73048216,1.09210365 8,1.09210365 C9.27182047,1.09210365 10.3026321,2.12214775 10.3026321,3.39243314 L10.3026321,3.52642551 L5.70076348,8.12829414 Z M12.5956032,5.57533916 C12.601961,5.61508286 12.6052642,5.65584196 12.6052642,5.69736788 L12.6052642,6.85098657 L12.6052642,8.00460526 C12.6052642,10.2834435 10.9412288,12.1700668 8.76754404,12.5361853 L8.76754404,13.9158194 C8.76754404,14.4506066 8.32063971,14.9078963 7.76935528,14.9078963 L8.23064472,14.9078963 C7.68473026,14.9078963 7.23245596,14.4637284 7.23245596,13.9158194 L7.23245596,12.5361853 C6.80501992,12.4641675 6.39751722,12.3333256 6.01859204,12.1523503 L7.20513768,10.9658047 C7.45876482,11.0338628 7.7252352,11.0701762 8,11.0701762 C9.69320215,11.0701762 11.0701762,9.69550478 11.0701762,8.00460526 L11.0701762,7.10076622 L12.5956032,5.57533916 Z M3.84452027,9.98453735 C3.55622066,9.38452928 3.39473577,8.7129331 3.39473577,8.00460526 L3.39473577,6.85098657 L3.39473577,5.69736788 C3.39473577,5.27368358 3.7385955,4.92982385 4.16227981,4.92982385 C4.58596412,4.92982385 4.92982385,5.27368358 4.92982385,5.69736788 L4.92982385,8.00460526 C4.92982385,8.27784691 4.96593193,8.54296173 5.03363778,8.79541984 L3.84452027,9.98453735 Z M1.53759367,14.1362254 L1.86377456,14.4624063 C1.47775474,14.0763865 1.47737307,13.4371557 1.87140322,13.0431256 L13.0431256,1.87140322 C13.4451517,1.4693771 14.0725894,1.4739576 14.4624063,1.86377456 L14.1362254,1.53759367 C14.5222453,1.92361349 14.5226269,2.56284426 14.1285968,2.95687441 L2.95687441,14.1285968 C2.55484829,14.5306229 1.92741063,14.5260424 1.53759367,14.1362254 Z" id="path-1"></path>
    </defs>
    <g id="Symbols" stroke="none" stroke-width="1" fill="none" fill-rule="evenodd">
        <g id="icon/16px/vid-audio-muted">
            <mask id="mask-2" fill="white">
                <use xlink:href="#path-1"></use>
            </mask>
            <use id="Combined-Shape" fill="#42526E" xlink:href="#path-1"></use>
        </g>
    </g>
</svg>